{
  "_help": {
    "title": "Converter map",
    "description": "This file is used to map the role uuids to wooch roles",
    "roles_values": [
      "admin",
      "memberships-manager",
      "memberships-viewer",
      "scanner-manager",
      "scanner",
      "order-manager",
      "order-exporter",
      "sales-manager",
      "sales-viewer"
    ]
  },
  "market": {
    "5e03dae0-3af5-11e9-a43d-b3a93bca68c7" : ["admin"],
    "5e055850-3af5-11e9-8179-b960d37afa08" : ["admin"],
    "5e07a210-3af5-11e9-92da-472c16b82e7e" : ["admin"],
    "5e0c2200-3af5-11e9-8230-e56a8ddde0e6" : ["admin"],
    "5e12fc00-3af5-11e9-a2eb-bda2ff28d348" : ["memberships-manager", "scanner-manager", "sales-manager"],
    "5e181810-3af5-11e9-95a0-1b4ead108bce" : ["sales-viewer", "sales-manager"]
  },
  "admin": {
    "simde" : ["5e03dae0-3af5-11e9-a43d-b3a93bca68c7"]
  }
}